rep,alpha,mean_events/amp,topo_acc,topo_unique_acc,event_acc_mean,event_acc_std,prop_ones
0,30.0,20,1.0,1.0,0.947408,0.0154602425,0.13042149
1,30.0,20,1.0,1.0,0.9780388,0.0065725693,0.15170404
2,30.0,20,1.0,1.0,0.99008447,0.0027419368,0.13965333
3,30.0,20,1.0,0.0,0.87025726,0.0503026,0.0
4,30.0,20,1.0,0.0,0.87025726,0.0503026,0.0
5,30.0,20,1.0,1.0,0.9177003,0.02466998,0.21204261
6,30.0,20,1.0,1.0,0.9405905,0.017806008,0.18733558
7,30.0,20,0.994,0.994,0.7686857,0.075996794,0.10183538
8,30.0,20,1.0,1.0,0.9530896,0.014800605,0.17665328
9,30.0,20,1.0,1.0,0.97876036,0.0063540027,0.15097642
10,30.0,20,0.994,0.994,0.8482536,0.042114988,0.28148928
11,30.0,20,1.0,1.0,0.9097066,0.028353132,0.2200363
12,30.0,20,1.0,1.0,0.9793676,0.0061673187,0.15037526
13,30.0,20,1.0,1.0,0.96632665,0.009677473,0.16341622
14,30.0,20,1.0,1.0,0.9678951,0.009543102,0.1555712
15,30.0,20,0.994,0.994,0.8646996,0.05014998,0.103087746
16,30.0,20,1.0,0.0,0.87025726,0.0503026,0.0
17,30.0,20,1.0,0.0,0.87025726,0.0503026,0.0
18,30.0,20,1.0,1.0,0.9825274,0.0052789096,0.14721541
19,30.0,20,1.0,1.0,0.9567154,0.013117129,0.17293623
